…
#> Ap           0.00  0.57  0.00  0.00  0.53  0.00  0.00  0.00  0.00
#> Aa           0.00  0.00  0.26  0.00  0.00  0.15  0.00  0.00  0.00
#> Be           0.46 -0.29 -0.18  0.50 -0.21 -0.12  0.26  0.51  0.33
#> Bp           0.00  0.62  0.12  0.00  0.64  0.00  0.00 -0.57 -0.41
#> Ba           0.00  0.00  0.86  0.00  0.00  0.91  0.00  0.00  0.31
#> Oe           0.00  0.00  0.00  0.00  0.00  0.00  0.91  0.00  0.00
#> Op           0.00 -0.20  0.00  0.00  0.00  0.00  0.00  0.47  0.00
#> Oa           0.00  0.00  0.00  0.00  0.00  0.09  0.00  0.00  0.54
#> Ae:Be        0.00  0.00  0.00  0.00  0.00  0.00  0.16  0.00  0.54
#> Be:Oe        0.29  0.00  0.00  0.32  0.00  0.00  0.11  0.00  0.00
#> Bp:Oe       -0.22  0.00  0.00 -0.27  0.00  0.00 -0.15  0.00  0.00
#> Be:Oa       -0.09  0.00  0.00  0.00  0.00  0.00  0.00  0.00  0.00
#> Aa:Ba:Oe     0.00  0.00  0.00  0.00  0.00  0.00  0.00 -0.10  0.00
act$dictionary
#> # A tibble: 2,403 × 5
#>    term          component ratings   n         sd       
#>    <chr>         <chr>     <list>    <list>    <list>   
#>  1 abandon       behavior  <dbl [3]> <dbl [3]> <dbl [3]>
#>  2 abandoned     modifier  <dbl [3]> <dbl [3]> <dbl [3]>
#>  3 abduct        behavior  <dbl [3]> <dbl [3]> <dbl [3]>
#>  4 abet          behavior  <dbl [3]> <dbl [3]> <dbl [3]>
#>  5 abhor         behavior  <dbl [3]> <dbl [3]> <dbl [3]>
#>  6 able_bodied   modifier  <dbl [3]> <dbl [3]> <dbl [3]>
#>  7 abort         behavior  <dbl [3]> <dbl [3]> <dbl [3]>
#>  8 abortionist   identity  <dbl [3]> <dbl [3]> <dbl [3]>
#>  9 absent_minded modifier  <dbl [3]> <dbl [3]> <dbl [3]>
#> 10 abuse         behavior  <dbl [3]> <dbl [3]> <dbl [3]>
#> # ℹ 2,393 more rows
```
…
You’ll have to do with the help of some external packages.

For example:

``` r
occupation_ratings <- actdata::epa_subset(dataset = "occs2019") |> 
  dplyr::select(term, component, E, P, A) |> 
  dplyr::rename_all(tolower) |> 
  dplyr::rowwise() |> 
  dplyr::mutate(ratings = list(c(e = e, p = p, a = a))) |> 
  dplyr::ungroup() |> 
  dplyr::select(term, component, ratings)

occupation_ratings
#> # A tibble: 650 × 3
#>    term                             component ratings  
#>    <chr>                            <chr>     <list>   
#>  1 911_dispatcher                   identity  <dbl [3]>
#>  2 accountant                       identity  <dbl [3]>
#>  3 actor                            identity  <dbl [3]>
#>  4 actress                          identity  <dbl [3]>
#>  5 actuary_for_an_insurance_company identity  <dbl [3]>
#>  6 acupuncturist                    identity  <dbl [3]>
#>  7 administrative_assistant         identity  <dbl [3]>
#>  8 advertising_executive            identity  <dbl [3]>
#>  9 advertising_salesman             identity  <dbl [3]>
#> 10 aerobics_instructor              identity  <dbl [3]>
#> # ℹ 640 more rows
…
``` r
events <- crossing(
  A = occupation_ratings$term,
  B = "defer_to",
  O = occupation_ratings$term
)

output <- act$deflection(events)

output |> 
  group_by(A) |> 
  summarize(avg = mean(deflection), sd = sd(deflection)) |> 
  arrange(desc(avg)) 
#> # A tibble: 650 × 3
#>    A                            avg    sd
#>    <chr>                      <dbl> <dbl>
#>  1 firefighter                 16.7  1.50
#>  2 fireman                     15.0  1.47
#>  3 paramedic                   13.9  1.45
#>  4 professional_athlete        12.4  1.40
#>  5 fire_department_lieutenant  12.3  1.45
#>  6 ambulance_driver            11.4  1.38
#>  7 auctioneer                  11.1  1.31
#>  8 dynamite_blaster            11.0  1.34
#>  9 911_dispatcher              10.9  1.40
#> 10 surgeon                     10.6  1.51
#> # ℹ 640 more rows
```
