Create a new InteRactModel object — interact • actsims
…
act$fundamentals(c("accuse", "mother", "surgeon"))
#> # Source:  ()
#> # A data frame: 4 × 5
#>   term    component     e     p     a
#> * <chr>   <chr>     <dbl> <dbl> <dbl>
#> 1 accuse  behavior  -1.58  0.51 0.77 
#> 2 mother  behavior   2.52  2.08 0.505
#> 3 mother  identity   2.8   2.47 1.30 
#> 4 surgeon identity   2.76  2.82 0.81 

act$dictionary
#> # A tibble: 1,501 × 5
#>    term            component ratings   n         sd       
#>    <chr>           <chr>     <list>    <list>    <list>   
#>  1 abandon         behavior  <dbl [3]> <dbl [3]> <dbl [3]>
#>  2 abortion_clinic setting   <dbl [3]> <dbl [3]> <dbl [3]>
#>  3 abortionist     identity  <dbl [3]> <dbl [3]> <dbl [3]>
#>  4 abuse           behavior  <dbl [3]> <dbl [3]> <dbl [3]>
#>  5 abusive         modifier  <dbl [3]> <dbl [3]> <dbl [3]>
#>  6 accommodate     behavior  <dbl [3]> <dbl [3]> <dbl [3]>
#>  7 accommodating   modifier  <dbl [3]> <dbl [3]> <dbl [3]>
#>  8 accuse          behavior  <dbl [3]> <dbl [3]> <dbl [3]>
#>  9 address         behavior  <dbl [3]> <dbl [3]> <dbl [3]>
#> 10 admonish        behavior  <dbl [3]> <dbl [3]> <dbl [3]>
#> # ℹ 1,491 more rows
…
