Introduction • actsims
…
act <- interact(dictionary = "usfullsurveyor2015", equations = "us2010")
#> ✔ dictionary = list(dataset = "usfullsurveyor2015", group = "all")
#> ✔ equations = list(key = "us2010", group = "all")
act
#> 
#> ── Interact Analysis ───────────────────────────────────────────────────────────
#> ℹ Dictionary: usfullsurveyor2015 (group: all)
#> ℹ Equations: us2010
#>   impressionabo (group: all)

Dictionary

act$dictionary
#> # A tibble: 2,403 × 5
#>    term          component ratings   n         sd       
#>    <chr>         <chr>     <list>    <list>    <list>   
#>  1 abandon       behavior  <dbl [3]> <dbl [3]> <dbl [3]>
#>  2 abandoned     modifier  <dbl [3]> <dbl [3]> <dbl [3]>
#>  3 abduct        behavior  <dbl [3]> <dbl [3]> <dbl [3]>
#>  4 abet          behavior  <dbl [3]> <dbl [3]> <dbl [3]>
#>  5 abhor         behavior  <dbl [3]> <dbl [3]> <dbl [3]>
#>  6 able_bodied   modifier  <dbl [3]> <dbl [3]> <dbl [3]>
#>  7 abort         behavior  <dbl [3]> <dbl [3]> <dbl [3]>
#>  8 abortionist   identity  <dbl [3]> <dbl [3]> <dbl [3]>
#>  9 absent_minded modifier  <dbl [3]> <dbl [3]> <dbl [3]>
#> 10 abuse         behavior  <dbl [3]> <dbl [3]> <dbl [3]>
#> # ℹ 2,393 more rows
…
This seems to be the easiest way to do this:

act <- interact()
#> ✔ dictionary = list(dataset = "usfullsurveyor2015", group = "all")
#> ✔ equations = list(key = "us2010", group = "all")

defer_to <- act$dictionary |> ## save for later use
  dplyr::filter(term == "defer_to")

occ <- interact(dictionary = "occs2019")
#> ✔ equations = list(key = "us2010", group = "all")
#> ✔ dictionary = list(dataset = "occs2019", group = "all")
occ$dictionary
#> # A tibble: 650 × 5
#>    term                             component ratings   n         sd       
#>    <chr>                            <chr>     <list>    <list>    <list>   
#>  1 911_dispatcher                   identity  <dbl [3]> <dbl [3]> <dbl [3]>
#>  2 accountant                       identity  <dbl [3]> <dbl [3]> <dbl [3]>
#>  3 actor                            identity  <dbl [3]> <dbl [3]> <dbl [3]>
#>  4 actress                          identity  <dbl [3]> <dbl [3]> <dbl [3]>
#>  5 actuary_for_an_insurance_company identity  <dbl [3]> <dbl [3]> <dbl [3]>
#>  6 acupuncturist                    identity  <dbl [3]> <dbl [3]> <dbl [3]>
#>  7 administrative_assistant         identity  <dbl [3]> <dbl [3]> <dbl [3]>
#>  8 advertising_executive            identity  <dbl [3]> <dbl [3]> <dbl [3]>
#>  9 advertising_salesman             identity  <dbl [3]> <dbl [3]> <dbl [3]>
#> 10 aerobics_instructor              identity  <dbl [3]> <dbl [3]> <dbl [3]>
#> # ℹ 640 more rows
…
events <- tidyr::crossing(
  A = occupations,
  B = "defer_to",
  O = occupations
)

output <- occ$deflection(events)

output |> 
  filter(A != O) |> 
  group_by(A) |> 
  summarize(avg = mean(deflection)) |> 
  arrange(desc(avg)) 
#> # A tibble: 650 × 2
#>    A                            avg
#>    <chr>                      <dbl>
#>  1 firefighter                 16.6
#>  2 fireman                     15.0
#>  3 paramedic                   13.9
#>  4 professional_athlete        12.4
#>  5 fire_department_lieutenant  12.3
#>  6 ambulance_driver            11.4
#>  7 auctioneer                  11.1
#>  8 dynamite_blaster            10.9
#>  9 911_dispatcher              10.9
#> 10 surgeon                     10.6
#> # ℹ 640 more rows
…
